id,cancerTypeId,OS_MONTHS,OS_STATUS,gene
2,1,2.1,1,"138,181"
5,1,9.0,1,"55,176,308"
7,1,1.5,1,164
9,0,10.6,1,"7,164,297"
15,1,3.7,1,"55,176,279"
19,1,0.9,1,"24,164,221,262,297"
20,1,0.9,1,"164,221,297"
22,0,24.5,0,"7,56,91,297"
23,1,6.6,1,"3,7,33,61,288,297"
26,1,1.5,1,"7,229,272,273,297"
28,0,1.4,1,3
30,1,20.1,1,"33,297"
33,1,1.0,1,"55,61,91,92,132,164,297"
34,1,4.4,1,"30,35,63,91,118,186,264,297"
39,0,2.6,1,"7,12,93,164,221,270,297"
44,1,2.6,1,"6,45,61,91,92,109,114,158,221,288,297,300"
47,0,20.1,0,"14,34,71,77,88,103,104,159,161,166,169,203,246,257,261,273,288,297"
48,0,3.1,1,"155,297"
51,1,5.8,1,"4,13,36,126,176,193,221,244,250"
53,1,1.6,1,"7,13,15,55,126,161,176"
59,0,3.7,1,"111,126,131,167,176,297"
61,1,1.8,1,"170,199"
66,1,3.7,1,"58,84,116,221,297,312"
70,0,3.9,1,"29,77,107,246"
72,0,3.6,1,164
73,1,2.8,1,"17,63,141,181,297"
74,0,7.3,1,164
84,1,1.3,1,"246,297"
86,0,1.2,1,221
88,0,9.6,1,"48,164,297"
89,1,3.7,1,229
91,1,4.2,1,"34,297"
92,0,1.5,1,185
94,0,3.9,1,"34,203,221,274"
97,0,1.9,1,104
99,1,4.2,1,"7,61,164,270,297"
101,1,3.2,1,"4,45,63,264,297"
102,1,4.7,1,"63,87,297"
105,1,1.5,1,"54,153,221,238,285,297"
112,1,2.8,1,"48,203,297"
115,0,3.9,1,"7,15,84,164,221,270"
118,0,6.8,0,"61,164,297"
119,0,1.3,1,"11,22,63,237"
120,0,3.3,0,"7,29,164,264"
121,0,6.3,0,"15,29,36,54,60,91,172,191,221,264,297"
122,0,6.8,0,"7,60,91,164,211,264"
123,0,2.1,1,"33,77,123,193,206,288,297"
127,0,2.0,1,"185,221"
132,0,1.9,1,"7,164"
135,0,1.5,1,"61,85,162,181,288"
140,0,1.8,0,"18,134,167,235,287,297,311"
141,0,3.2,0,"55,63,126,152,160,163,176,181,215,218,246"
152,0,2.7,0,"88,91,193,297"
155,0,3.2,0,"2,16,17,63,142,208,221,238,284,297,300"
156,0,2.6,0,"91,297"
157,0,3.1,0,"45,108,109,114,116,140,193,258,312"
162,0,2.1,0,84
163,0,1.8,0,116
A001,1,1.8,1,"3,46,63,110,111,115,138,157,164,172,249,297"
A003,1,3.4,1,"35,95,210,308"
A004,1,7.0,1,"10,11,15,18,45,63,85,86,108,109,116,134,193,311,325"
A008,1,2.8,1,"63,91,92,297"
A009,1,13.5,1,"32,48,73,116,185,243,297,312"
A010,0,14.0,1,"95,224"
A011,0,3.4,1,"29,69,77,129,185,213,221,224,238,250"
A012,1,0.7,1,"193,297"
A016,1,6.5,1,"4,18,20,48,123,134,152,167,193,215,221,297"
A018,1,3.5,1,"46,110,115,152,168,215,236,297,325"
A021,1,1.8,1,"3,116,117,186,193,221,238,246,297,312,325"
A024,0,2.2,1,"15,46,57,110,115,116,122,126,157,164,175,176,177,220,221,312,325"
A026,0,6.8,1,"77,164,221"
A032,0,4.9,0,"33,46,106,264,297"
A033,1,2.8,1,297
A034,0,5.6,1,"18,45,108,109,114,134,311"
A035,0,3.5,0,"193,201,297"
A037,1,1.4,1,"61,164,199,289,297"
A038,1,1.4,1,"48,205,297"
A040,1,4.3,1,"5,56,85,213,269,288"
A041,0,3.7,0,"91,92,296"
A042,0,4.7,1,"15,33"
A043,0,3.2,0,"7,92,164"
A044,0,3.3,0,"29,120,288"
A045,0,3.5,1,"63,164,264,297"
