id,cancerTypeId,OS_MONTHS,OS_STATUS,gene
784,3,3.76666666666667,1,"55,85,92,132,201,202,297,311"
2133,3,6.7,0,"91,246,297"
5167,12,12.6333333333333,0,"4,48,92,164,193,242,297"
1791,18,17.7333333333333,0,"3,7,46,244"
129,1,68.7,0,"73,221"
3892,6,21.6,0,"19,30,35,87,107,161"
4187,1,2.06666666666667,1,"35,54,192,221,228,263,297"
5448,15,16.6,0,"31,45,48,63,72,74,108,109,111,114,152,155,156,174,194,215,216,219"
2597,2,3.03333333333333,1,"7,61,164,193,264,270,297"
3515,11,5.36666666666667,0,"15,71,91,246,288"
3538,13,3.33333333333333,1,"140,164,193,198,203,253,280"
3350,8,1.8,1,"21,23,71,193,294"
91,4,3.96666666666667,1,"48,91,119,193,198,221,297"
285,15,11.1,1,"48,107,193,221,297"
985,17,4.03333333333333,1,"33,91,141,151,152,203,204,206,238,297"
1272,2,40.9333333333333,0,"7,164,251,297"
1123,10,1.56666666666667,1,"164,221,297"
1275,2,4.7,1,"33,95,140,162,164,193,297"
1689,2,32.6333333333333,0,"7,46,163,164,221,297,317"
1799,2,13.1666666666667,1,"7,8,85,134,297"
2286,12,17.1333333333333,1,"111,126,131,167,176,297"
2815,2,21.9333333333333,0,"1,7,11,14,16,29,35,36,39,53,66,79,89,98,99,102,106,107,135,152,153,157,164,166,172,188,214,218,229,237,238,239,256,258,261,264,272,273,277,284,297,309"
3280,2,22.2333333333333,0,"7,116,164,237,297,312"
3569,10,15.1666666666667,0,"194,221,297"
2663,2,24.3333333333333,0,"7,57,122,164,297"
3750,1,7.26666666666667,1,"18,130,134,234,297,311"
4930,12,5.8,0,"29,297"
1266,2,14.0,1,"7,57,72,122,193,289,297,311"
1681,2,11.8,1,"7,45,108,109,114,164,167,169,193,221,297"
2628,12,15.0666666666667,0,"7,15,33,46,48,55,56,85,91,101,117,164,181,193,221,244,297"
272,10,13.1333333333333,1,"4,35,45,108,109,114,164,197,297"
4406,5,4.86666666666667,1,"61,164,238,250,297"
5386,1,8.46666666666667,0,"10,79,107,111,168,221,248,249,260,297"
3430,5,4.96666666666667,1,"164,297"
2,1,41.8333333333333,1,3
2532,10,1.03333333333333,1,"8,33,34,238,297"
4411,8,2.1,1,"63,105,293"
4455,8,4.26666666666667,1,"29,145,259,278"
4778,8,13.1,1,"21,44,50,201,268"
3351,8,8.86666666666667,0,"11,111,152,156,215,216,249,268,293,297"
2903,8,1.83333333333333,1,"84,152,289"
1349,9,7.36666666666667,1,"181,238,297"
2438,17,4.7,1,"17,63,141,181,297"
3288,9,1.0,1,"248,288,297"
5084,12,4.66666666666667,1,"4,20,48,140,144,193,221,231,297"
407,14,3.4,1,248
1289,6,5.93333333333333,1,"11,35,61,192,224,238"
1492,9,4.2,1,"7,8,91,193,297"
5179,2,12.3666666666667,0,"7,24,48,85,91,100,116,193,221,297"
2779,4,19.3333333333333,1,85
4246,18,11.8666666666667,1,
1343,5,3.66666666666667,1,"11,34,60,63,91,164,297"
3799,2,1.33333333333333,1,"7,14,24,134,153,192,206,262,273,275,295,297"
420,9,11.8,1,"6,11,138,181"
3899,15,12.4,0,"6,41,63,101,221"
5288,12,10.6666666666667,0,33
68,1,1.53333333333333,1,"130,193,197,260,264,297"
300,12,23.7,1,"101,193,198,297"
922,7,2.56666666666667,1,"159,258"
3020,7,18.9,0,"22,101,107,266,295,332,333"
3162,5,23.9,0,"61,84,92,107,164,189,265,297"
3797,8,1.36666666666667,1,"8,27,84,125,170,268,289"
4014,5,1.93333333333333,0,"15,55,132,264,297"
2826,18,10.5333333333333,1,"6,34,297"
1594,7,8.0,0,"63,288,297"
1218,9,0.866666666666667,1,"77,85"
1285,9,1.16666666666667,0,"33,56,85,116,297"
2041,2,1.93333333333333,1,"7,56,85,164,181,193,221,264,297"
885,3,24.7666666666667,1,
513,1,4.76666666666667,1,"10,47,71,72,134,158,193,238,297,311"
507,6,2.03333333333333,0,"61,68,260,290"
1716,12,43.2,0,"105,185,238,297"
1838,18,9.4,1,"29,66,83,107,143,297"
2332,7,3.9,0,"185,224"
325,1,17.7666666666667,1,"15,18,72,86,116,146,177,311,312"
2788,1,2.83333333333333,1,"95,134,221"
2872,6,3.66666666666667,1,"117,221,229"
3085,1,5.56666666666667,1,"33,54,153,221,238,285,297"
1103,15,11.9666666666667,1,"55,63,176,198,203,279,280"
2318,6,3.23333333333333,1,"4,9,34,45,63,264,297"
2069,18,40.8,0,77
3703,1,18.5666666666667,0,"91,204,221"
138,1,2.86666666666667,0,"18,193,197,295,297,311,312"
197,1,9.73333333333333,1,"11,18,45,55,108,109,114,130,176,201,202,275,295,311"
655,1,12.7666666666667,1,"40,76,116,214,221,237,238,297"
157,1,18.6333333333333,1,181
363,1,1.46666666666667,1,"8,160"
2281,1,3.43333333333333,1,"35,85,95,116,130,193"
2206,4,22.8,1,"192,281,297"
3060,4,16.5,1,297
1,1,73.5333333333333,0,"122,221,269,297"
192,1,23.9,1,"25,45,63,108,109,114,130,202,252,264,297"
1066,1,6.93333333333333,0,"24,45,86,91,98,108,109,114,197,221,297,311"
3685,8,13.0333333333333,0,"28,63,196,298"
5079,4,12.5,0,"11,78,107,141,148,196,211,250,297,316,349,350,351,353"
3905,15,6.4,1,"17,28,61,126,157,160,163,176,198,218"
2611,6,21.6,0,117
3984,7,15.6333333333333,0,"17,35,106,238,264,297"
4222,12,15.5666666666667,0,"32,186,288"
4914,12,13.5333333333333,0,"15,77,166,201,202,254,297,311"
1945,2,5.73333333333333,1,"7,87,164,297,355"
4149,2,11.5333333333333,1,"85,186,206,264,297"
4819,1,12.6333333333333,0,"10,11,91,113,160,163,204,297"
222,4,13.3,1,"29,84,289,297"
5348,4,1.3,1,"33,48,56,91,181,193,205,221,264,297"
3786,17,25.2666666666667,0,116
3836,4,6.53333333333333,1,"126,297"
3713,18,22.0666666666667,1,"11,67,75,117,186,221,238,297"
3453,4,2.5,0,"11,45,56,108,109,114,181,287,297"
4928,18,2.76666666666667,0,"45,116"
55,1,15.6666666666667,1,"95,175"
5696 (1),12,5.06666666666667,0,"4,7,164,231,297"
2017,6,8.43333333333333,1,"7,199,288"
3518,8,11.1333333333333,0,"0,96"
2131,2,4.2,1,"45,56,85,91,108,109,114,192,193,296,297"
1732,17,5.26666666666667,1,"55,126,132,176,191,221,288"
3285,18,7.53333333333333,1,"47,63,143,297,305"
3634,8,21.3333333333333,0,"29,33,164,230,257"
3692,5,14.0,0,"48,164,246,297"
3896,17,7.96666666666667,1,"17,63,116,152,198,215,216,221,269"
1628,7,17.4,1,"7,15,30,35,63,91,107,118,186,218,264,297,306"
3175,9,2.0,0,"11,77,288"
3374,4,8.13333333333333,1,"47,75,193,197,249,297,301,305"
3102,17,15.3333333333333,1,"55,63,126,152,160,163,176,181,215,216,218,246"
4912,18,6.93333333333333,0,"7,14,29,30,101,106,107,120,185,221,245,248,250,265,270,272,297"
3867,4,2.66666666666667,1,"45,56,63,108,109,114,221,222,235,269,287,297"
3618,9,13.1333333333333,0,"7,77,104,288,297"
4504,12,2.16666666666667,1,"61,106,221,288,297"
3026,5,2.66666666666667,0,"61,164,199,266"
4926,18,3.4,0,"11,12,15,35,45,75,76,92,98,118,127,151,164,181,221,238,250,264,297"
2774,12,8.43333333333333,0,"11,84,127,164,200,221,237,270,297"
3,1,4.6,1,95
7,1,66.9,0,95
5,2,24.2666666666667,1,
13,1,72.3333333333333,0,130
18,1,7.56666666666667,1,"5,97,193,194,297"
30,18,2.73333333333333,1,"6,14,195,223,266,297"
44,15,9.63333333333333,1,164
41,18,2.3,1,"29,61,185,297"
60,1,1.8,1,"11,193,246"
120,1,26.9333333333333,1,"175,185,193,201,297"
149,1,11.8666666666667,1,"47,150,175,203,297"
228,3,4.26666666666667,1,"17,185,297"
143,3,4.43333333333333,1,"55,176"
188,8,1.33333333333333,1,"73,129"
250,1,10.1333333333333,1,"33,47,63,177,181,193,214"
251,8,44.6,0,"33,46,55,92,108,110,115,164,176,178"
290,1,7.3,1,"3,45,95,108,109,114"
98,1,7.6,1,"11,71,116,130,201,252,297"
280,8,4.0,1,"71,246,297"
29,1,26.3666666666667,1,"130,143"
127,1,4.73333333333333,1,"175,201,221,258,297"
273,8,3.1,1,"23,71,113,166,179,185,209,259,278,294"
370,18,65.4666666666667,0,"188,198,297"
360,15,15.0333333333333,0,"35,198,297"
339,17,7.73333333333333,1,"35,63,85"
303,3,5.36666666666667,1,"15,61,85,111"
336,1,37.4333333333333,0,206
441,18,35.9333333333333,1,"10,18,45,56,85,108,109,114,134,193,221,264,297,311"
440,4,3.73333333333333,1,"61,175,221,237,265,293,297,308"
517,8,59.1333333333333,0,"20,31,81,87,185,198,203,214,237,258,297,299"
504,6,7.06666666666667,1,"13,22,57,122,181,297"
628,18,4.76666666666667,1,63
629,1,10.4333333333333,1,"40,45,108,109,114,175,176,204,221,312"
624,8,8.8,1,164
658,1,16.7333333333333,0,"54,116,221,238,280"
611,18,13.7,1,"47,93,237,264,297,301"
558,5,12.5333333333333,1,"16,61,164,297"
675,1,25.3333333333333,0,"11,166,176,198,264"
762,16,5.6,1,"8,14,58,61,85,91,162,163,181,296,315"
110,2,1.7,0,"7,164"
828,8,54.5666666666667,0,"84,187,304"
798,1,1.4,0,"5,10,45,57,73,85,108,109,114,122,130,134,146,175,176,177,181,220,221,275,311"
808,18,2.03333333333333,1,"7,131,199,246"
898,3,11.6,1,"161,264,297"
976,7,11.4666666666667,0,"79,193,206,251,297"
728,1,11.5666666666667,1,"6,11,95"
1099,3,2.5,1,"63,87,148,263"
1130,8,53.0,0,"63,147,306"
1175,11,20.5666666666667,1,"11,46,77,92,140,288"
1247,2,20.8,1,"7,11,297"
1297,5,3.73333333333333,1,"56,85,164,264"
1195,18,12.8,1,"45,63,91,143,181,182,192,193,203,252"
953,1,1.9,0,"7,85,116,181,193,210,297,312"
1050,1,10.7666666666667,1,"5,193,246,264,297"
815,2,3.36666666666667,1,"33,91,116,164,192,224,238,264,297"
1616,9,3.2,1,"45,94,114,117,200,305"
1649,3,10.4,1,"85,116,164,171,198,206,297,317"
1712,6,37.6,1,"164,193,312"
1592,5,5.16666666666667,1,"164,198,221,246,267,297"
1056,2,3.13333333333333,1,"7,8,33,100,107,203,297"
1820,7,6.23333333333333,1,"87,106,297"
1337,2,33.1,0,"7,164,203,221,297"
1662,2,19.2,0,"24,218,221,247,297"
1802,2,1.93333333333333,0,331
1804,4,0.633333333333333,1,"61,126,134,176,311"
1798,18,17.3333333333333,1,"170,297"
1837,7,3.06666666666667,1,"218,221,297"
1928,1,41.8333333333333,0,"116,188,297,312"
1984,15,12.3333333333333,1,199
1988,2,20.4333333333333,1,"7,33,35,85,116,153,193,198,297"
1864,7,4.13333333333333,1,"6,7,11,56,61,117,163,181,203,218,244,246,280,297"
2084,18,8.86666666666667,1,"8,77,91,117,134,183,203,244,316"
2262,15,9.33333333333333,1,"17,166,246,297"
2105,6,31.8666666666667,0,"95,164,221"
2260,1,1.96666666666667,1,"45,46,164,193,297"
1223,4,12.3333333333333,1,"22,54,126,176"
1874,17,9.1,1,"61,85,218,224,240,257,288"
1419,5,10.2,1,"4,63,164,297"
860,10,4.86666666666667,1,"185,186,189"
1940,17,16.8333333333333,0,"17,111,137,198,245,249"
2791,1,4.5,0,"45,95,116,193"
2823,6,4.86666666666667,0,"45,84,108,109,114,206"
2739,1,20.7,0,"54,71,193,265,297"
2852,11,0.3,1,"63,87,159,227,254,288,297"
2913,11,6.33333333333333,1,"159,166,194,246,288,297"
2920,18,2.4,0,
2992,12,6.3,1,"33,34,297"
3000,18,2.03333333333333,1,"95,198,199,297"
3155,7,9.0,0,"71,159,193"
3058,1,1.0,1,"3,45,61,108,109,114,126"
2757,5,3.23333333333333,0,"61,164"
2983,15,14.7,1,"17,63,88,185,204,289"
3160,1,12.2,0,"4,48,65,116,197,297"
1793,2,11.5666666666667,1,"33,77,123,193,206,288,297"
3213,5,2.0,1,164
2612,2,4.03333333333333,1,"7,164,264,297"
3357,1,2.03333333333333,1,"33,181,248,297"
3397,4,2.7,1,"11,45,85,107,108,109,114,118,164,200,203,221,269,297"
3411,2,13.0666666666667,1,"7,10,25,45,108,109,114,134,166,193,297"
3365,6,3.56666666666667,1,"13,297"
3546,1,15.9666666666667,0,"5,172,204,221"
3526,15,14.2,0,"164,297"
3431,13,38.4666666666667,0,"185,221,297"
3543,15,24.1666666666667,1,291
3510,1,16.8333333333333,0,"3,164,207,277,297"
3696,1,5.56666666666667,1,"95,198"
3460,5,2.36666666666667,1,"63,164,264"
3606,1,6.2,1,"48,193,238,297"
3664,8,13.7333333333333,0,49
3446,2,10.9,0,"7,107,122,150,164,297"
1629,4,8.1,1,"164,238,297"
2481,8,2.43333333333333,1,"27,42,47,52,226,297"
3052,9,1.93333333333333,1,"13,77,85,288,297"
1014,8,3.43333333333333,1,"145,192"
3316,2,0.566666666666667,1,"77,119,297"
3166,2,1.53333333333333,1,"7,107,172,297,301"
3511,1,8.13333333333333,1,"95,130,167,193,197,201,202"
3747,8,0.466666666666667,1,"81,145,206,297,299"
3904,16,15.6333333333333,1,"77,238,297"
3903,5,1.56666666666667,1,"61,164,297"
4183,2,3.9,1,
4144,18,14.7,1,97
4248,1,3.4,0,"71,238,246,289,297"
4430,5,8.03333333333333,1,"4,61,100,164,297"
3465,1,12.6,1,"221,297"
4474,1,7.33333333333333,1,297
4568,1,4.43333333333333,1,"29,54,95,159,221,297"
4360,6,16.7,0,"7,19,63,172,221,264,297"
4325,11,5.6,1,"63,159,164,221,288"
3067,2,4.73333333333333,0,"7,15,91,107,134,164,210,297,304"
4725,8,3.96666666666667,1,"64,164"
4398,1,0.766666666666667,1,"8,33,45,56,181,185,221,264,297"
4953,1,6.06666666666667,0,"45,86,93,95,108,109,114,116,297,312"
4920,12,15.1,0,"77,221,238,266"
5089,1,13.2333333333333,1,"54,221,288,297"
4358,16,10.2333333333333,0,"162,186,193,292"
5226,12,7.66666666666667,0,"3,29,77,88,107"
5490,7,9.63333333333333,0,"83,85,90,106,116,197,221,222,235,269,287,297"
5482,16,1.63333333333333,1,"3,8,85,221,292,297"
4999,5,1.7,0,"15,63,164,264,297"
5301,5,1.93333333333333,0,"22,164,297"
5694,1,7.23333333333333,0,"8,60,329"
5696 (2),12,7.7,0,"116,221,297,307"
5701,1,8.1,0,54
913,2,3.66666666666667,1,"7,35"
2510,16,4.83333333333333,1,"58,162,193,204"
1096,12,6.5,1,"34,198,297"
3805,1,12.4333333333333,0,"33,34,56,163,164,193,218,221,297"
4513,1,9.8,0,"8,35,45,55,116,163,218,221,244"
4252,7,0.233333333333333,1,"15,33,55,56,91,181,193,199,297"
2919,18,30.1333333333333,0,"34,164,203,221,274,297"
1713,11,10.1666666666667,1,"4,13,36,117,126,176,193,221,244,250"
3332,12,12.4666666666667,0,"15,30,35,71,169,221,235,287,297"
2134,6,1.6,1,"7,13,15,55,126,161,176"
2590,5,1.26666666666667,0,"35,61,150,164,264,287,297"
3976,15,20.7666666666667,0,"17,246"
791,3,3.96666666666667,1,"25,85,175,201,202,246,297"
4466,3,4.96666666666667,1,"85,288"
519,18,1.5,0,"35,193,203"
1866,4,5.8,0,221
2253,4,17.4,0,"33,35,46,53,56,58,99,106,118,120,163,168,169,183,185,189,198,218,221,237,250,261,270"
2637,4,1.93333333333333,1,"7,11,22,61,192,246,280"
271,2,18.4666666666667,0,"7,15,19,164,166,297"
3096,4,3.7,0,"35,54,59,297"
3547,5,8.1,0,"35,164,180,189,264"
3602,2,6.63333333333333,1,"35,46,61,110,115,157,264,280,297"
3568,18,8.3,1,"48,253,264,289,297"
966,15,27.2666666666667,1,"55,176,308"
1031,3,7.93333333333333,0,"7,47,61,193,221,248,297"
1422,9,10.1666666666667,1,"48,56,85,193,221"
1458,3,3.93333333333333,1,"48,53,88,280,297"
1421,12,8.1,1,63
1876,15,10.7333333333333,1,"47,63"
1781,9,1.1,1,"19,63,107,164,221,288,297"
1883,7,8.36666666666667,1,"63,79"
4340,5,0.8,1,"56,63,159,164,297,312"
4269,1,0.7,1,"33,40,58,85,116,173,175,181,244,246,297"
2964,6,12.0333333333333,1,"61,65,126,176"
3153,15,21.5333333333333,0,"46,55,110,115,126,176"
4316,12,15.0666666666667,0,"56,119,123,163,181,218,219,221,297"
1568,1,18.9,0,"172,221"
2293,1,31.9333333333333,0,"3,45,86,95,108,109,114,172,204,255,297"
3083,1,6.3,1,"11,18,45,108,109,114,116,134,186,193,197,238,297,311,312"
5537,1,9.93333333333333,0,"45,109,114,221,258,297"
1997,15,22.9666666666667,1,"29,61"
3061,4,7.66666666666667,1,"63,85,91,198,246,250,264,289,297"
4802,10,1.2,0,"85,164,244,297"
3379,8,16.8,0,"84,134,178,184"
430,11,1.2,1,"91,116,185,198,297,312"
1147,3,2.93333333333333,1,"56,72,160,163,201,205,238,273,297"
1427,15,6.5,1,"7,34,164,218,289,297"
541,11,15.1666666666667,1,"4,8,35,48,55,118,176"
1383,3,1.7,0,"163,218,221,297"
2083,2,33.4333333333333,0,
2730,6,2.56666666666667,1,"22,63,123,141,257"
3261,2,24.0666666666667,0,"3,79,166,273,277"
3214,4,6.36666666666667,1,"0,48,91,164,203,221,297"
3284,4,24.4666666666667,0,"61,76,250,297"
3412,18,2.86666666666667,1,"48,66,280"
3414,10,4.2,1,"11,30,134,164,166,180,188,238,246,264,297"
3644,4,4.5,0,"45,47,56,57,108,109,114,122,131,164,193,297,305"
4936,12,12.9666666666667,0,"0,11,67,84,91,107,125,173,185,189,224,231,238,265,297"
5304,4,3.5,0,"7,11,29,111,197,221,223,249,289,297"
5281,1,9.56666666666667,0,"56,297"
5467,12,11.5666666666667,0,"152,215,216"
5480,12,7.23333333333333,1,"112,116,195,221,238,297,307,312"
5637,4,7.63333333333333,0,"11,34,35,43,54,87,134,164,185,188,246,264,297"
2837,15,13.1333333333333,0,"11,91,116,163,193,204"
5465,18,7.86666666666667,1,"33,203,224,272,297"
4188,6,15.4,0,"33,47,77,244,297"
3571,11,9.8,1,"6,48,61,91,92,159,175,288,297"
3794,11,10.8333333333333,0,"91,92,140,277,288"
4946,8,2.4,1,"23,71,81,124,145,246,297"
1923,6,5.86666666666667,1,"8,141"
2334,10,6.66666666666667,1,164
25,1,18.8,1,"56,91,193,297"
630,1,38.1666666666667,0,"46,110,115,116,159,197,246,280,297,312"
49,4,2.33333333333333,1,"7,11,61,117,193,297"
897,18,7.5,1,"13,45,92,108,109,114,152,181,215,216,288,297"
2968,4,3.0,0,"5,11,33,221,263,297"
4486,4,4.03333333333333,1,"91,107,203,297"
1719,2,21.0666666666667,0,"7,11,103,164,198,221,248"
2263,15,24.6333333333333,0,"254,297"
2397,2,5.43333333333333,0,"7,12,107,164,172,191,221,247,264,266,297,308,323"
427,2,9.3,1,"4,7,122,164,173,297"
3787,8,23.1,0,"14,33,152,198,206,276,289"
1786,2,2.56666666666667,1,"17,57,122,248,273,297"
292,1,6.3,1,"193,244,297"
1380,6,12.1666666666667,0,"155,297"
16,1,44.8,1,"130,248"
1814,18,36.5,0,77
3074,5,4.36666666666667,1,33
4156,18,5.66666666666667,1,"7,56,63,161,176,221,243,264"
1245,4,2.8,1,"48,113,116,163,193,218,221,246,297"
1192,13,2.03333333333333,1,163
437,1,12.1333333333333,1,"33,45,48,85,108,109,114,116,140,193,221,244,258,312"
74,1,10.8666666666667,1,"11,91,130,272,275,311"
3091,13,15.2,0,"214,301"
3579,18,0.8,0,"46,61,110,115,157,197,239,297,301"
247,7,7.26666666666667,1,"61,111,140,249,297"
40,10,9.63333333333333,1,"134,164,221"
1001,2,4.53333333333333,1,"24,164,221,262,297"
1426,9,1.1,1,"77,244"
3399,11,11.2666666666667,0,"134,140,185,297"
3218,10,26.2666666666667,0,"134,164"
3710,2,4.86666666666667,0,"164,247,264,297"
3422,2,7.76666666666667,1,"7,106,107,164,221,285,297"
3043,15,17.5666666666667,1,"198,246,282,286"
868,6,7.66666666666667,0,"15,63,164,250"
1641,18,5.86666666666667,1,"15,33,193,297"
1336,10,2.53333333333333,1,"170,199,297"
2224,5,9.16666666666667,1,"4,20,126,164,176,218,297"
4275,12,19.0,0,"61,198,297"
3893,8,6.76666666666667,0,"71,87,206,238,257"
3712,11,1.63333333333333,1,"29,100,164,238,297"
4178,18,2.56666666666667,0,"63,99,131,134,164,264"
3878,5,1.03333333333333,1,"15,46,54,110,115,134,157,193,203,264"
4909,12,6.1,0,"61,107,164,192,297"
5237,5,5.56666666666667,1,"61,164,297"
5127,5,5.4,0,"45,48,61,164,297"
2830,2,7.93333333333333,1,"7,61,164,270,297"
4760,2,12.3333333333333,0,"164,297"
2555,12,30.8666666666667,0,164
3850,10,19.1333333333333,0,"134,164,221,250"
42,1,11.9333333333333,1,"18,71,91,221,297,311"
196,1,9.5,1,"10,18,45,86,108,109,114,185,311"
4382,4,14.2,0,"11,91,131,206,297"
4823,1,12.8666666666667,1,"18,38,91,134,221,235,236,253,287,297,308,311"
5594,6,9.56666666666667,0,"2,7,13,33,91,92,134,290"
3315,2,3.26666666666667,1,"7,57,91,122,181,297"
160,1,17.1,1,"91,297"
1136,4,8.26666666666667,0,"56,58,60,85,91,224,296,297"
5269,6,10.6333333333333,0,"91,297"
4498,1,15.6,0,"10,91,192,297"
3987,6,8.96666666666667,0,"7,63,91,172"
142,1,7.7,1,"3,164,198"
1680,6,40.7333333333333,0,"7,56,91,297"
1552,5,1.03333333333333,1,"55,61,91,92,132,140,164,203,221,297"
1947,11,2.8,1,"6,45,61,91,92,108,109,114,158,194,221,288,297,300"
3516,4,6.76666666666667,1,"85,297"
3969,18,1.03333333333333,1,"91,193,297"
4361,1,2.33333333333333,1,"33,35,91,116,181,193,297"
1448,11,0.7,0,"61,91,164,297,311"
4281,6,20.0666666666667,0,
4515,2,0.833333333333333,1,"7,11,91,99,116,164,193,296,297"
374,1,1.96666666666667,0,"45,91,108,109,114,155,201,221,297"
261,14,40.0666666666667,0,248
680,15,3.03333333333333,1,"33,63,70,175"
1589,2,6.76666666666667,1,"3,7,33,61,288,297"
3450,8,4.86666666666667,1,"185,246,297,326"
1194,13,51.5,0,180
1498,18,32.9333333333333,0,"59,61,76,166,203,237,261,265,297"
4861,2,1.6,1,"7,11,33,34,35,46,56,85,87,164,193,237,264,297"
691,8,44.1333333333333,1,"14,33,304"
669,18,16.0,1,"22,166,306"
1586,1,5.06666666666667,1,"95,118,280,297"
2609,6,9.2,1,"91,92,264,297"
3099,12,4.96666666666667,1,"3,11,55,164"
